[gd_resource type="Environment" load_steps=3 format=2]

[ext_resource path="res://Assets/kitchen.hdr" type="Texture" id=1]

[sub_resource type="PanoramaSky" id=3]
panorama = ExtResource( 1 )

[resource]
background_mode = 2
background_sky = SubResource( 3 )
ambient_light_color = Color( 0.968627, 0.984314, 0.937255, 1 )
ambient_light_sky_contribution = 0.1
