[gd_resource type="Curve3D" format=2]

[resource]
_data = {
"points": PoolVector3Array( 0, 0, 0, 0, 0, 0, 4.20387, -0.643817, -1.17144, 0, 0, 0, 0, 0, 0, 4.33237, -0.643817, -1.19465, 0, 0, 0, 0, 0, 0, 4.46289, -0.643817, -1.2164, 0, 0, 0, 0, 0, 0, 4.59493, -0.643817, -1.23586, 0, 0, 0, 0, 0, 0, 4.72801, -0.643817, -1.25221, 0, 0, 0, 0, 0, 0, 4.86162, -0.643817, -1.2646, 0, 0, 0, 0, 0, 0, 4.99528, -0.643817, -1.27223, 0, 0, 0, 0, 0, 0, 5.1285, -0.643817, -1.27426, 0, 0, 0, 0, 0, 0, 5.26077, -0.643817, -1.26986, 0, 0, 0, 0, 0, 0, 5.39162, -0.643817, -1.2582, 0, 0, 0, 0, 0, 0, 5.52054, -0.643817, -1.23847, 0, 0, 0, 0, 0, 0, 5.64704, -0.643817, -1.20982, 0, 0, 0, 0, 0, 0, 5.77063, -0.643817, -1.17144, 0, 0, 0, 0, 0, 0, 5.87941, -0.672244, -1.08206, 0, 0, 0, 0, 0, 0, 5.96372, -0.750835, -0.911734, 0, 0, 0, 0, 0, 0, 6.02648, -0.869557, -0.67662, 0, 0, 0, 0, 0, 0, 6.07063, -1.01838, -0.39287, 0, 0, 0, 0, 0, 0, 6.09907, -1.18727, -0.0766387, 0, 0, 0, 0, 0, 0, 6.11473, -1.36619, 0.25592, 0, 0, 0, 0, 0, 0, 6.12051, -1.54511, 0.588651, 0, 0, 0, 0, 0, 0, 6.11935, -1.71399, 0.905401, 0, 0, 0, 0, 0, 0, 6.11415, -1.86281, 1.19001, 0, 0, 0, 0, 0, 0, 6.10784, -1.98154, 1.42634, 0, 0, 0, 0, 0, 0, 6.10334, -2.06013, 1.59822, 0, 0, 0, 0, 0, 0, 6.10356, -2.08855, 1.6895, 0, 0, 0, 0, 0, 0, 6.09976, -2.0877, 1.74444, 0, 0, 0, 0, 0, 0, 6.08226, -2.08535, 1.81545, 0, 0, 0, 0, 0, 0, 6.05256, -2.08179, 1.89859, 0, 0, 0, 0, 0, 0, 6.01218, -2.07733, 1.98996, 0, 0, 0, 0, 0, 0, 5.96264, -2.07227, 2.08563, 0, 0, 0, 0, 0, 0, 5.90544, -2.06691, 2.18168, 0, 0, 0, 0, 0, 0, 5.8421, -2.06155, 2.27418, 0, 0, 0, 0, 0, 0, 5.77413, -2.05649, 2.35922, 0, 0, 0, 0, 0, 0, 5.70304, -2.05204, 2.43287, 0, 0, 0, 0, 0, 0, 5.63034, -2.04848, 2.49121, 0, 0, 0, 0, 0, 0, 5.55755, -2.04612, 2.53032, 0, 0, 0, 0, 0, 0, 5.48618, -2.04527, 2.54627, 0, 0, 0, 0, 0, 0, 5.39554, -2.04527, 2.54842, 0, 0, 0, 0, 0, 0, 5.26819, -2.04527, 2.54896, 0, 0, 0, 0, 0, 0, 5.11048, -2.04527, 2.54827, 0, 0, 0, 0, 0, 0, 4.92877, -2.04527, 2.5467, 0, 0, 0, 0, 0, 0, 4.72942, -2.04527, 2.54461, 0, 0, 0, 0, 0, 0, 4.51877, -2.04527, 2.54238, 0, 0, 0, 0, 0, 0, 4.30319, -2.04527, 2.54037, 0, 0, 0, 0, 0, 0, 4.08903, -2.04527, 2.53893, 0, 0, 0, 0, 0, 0, 3.88264, -2.04527, 2.53844, 0, 0, 0, 0, 0, 0, 3.69039, -2.04527, 2.53926, 0, 0, 0, 0, 0, 0, 3.51862, -2.04527, 2.54175, 0, 0, 0, 0, 0, 0, 3.3737, -2.04527, 2.54627, 0, 0, 0, 0, 0, 0, 3.23826, -2.04527, 2.55136, 0, 0, 0, 0, 0, 0, 3.09214, -2.04527, 2.55533, 0, 0, 0, 0, 0, 0, 2.93747, -2.04527, 2.55826, 0, 0, 0, 0, 0, 0, 2.77638, -2.04527, 2.56018, 0, 0, 0, 0, 0, 0, 2.61102, -2.04527, 2.56116, 0, 0, 0, 0, 0, 0, 2.44353, -2.04527, 2.56125, 0, 0, 0, 0, 0, 0, 2.27602, -2.04527, 2.56051, 0, 0, 0, 0, 0, 0, 2.11065, -2.04527, 2.559, 0, 0, 0, 0, 0, 0, 1.94955, -2.04527, 2.55676, 0, 0, 0, 0, 0, 0, 1.79484, -2.04527, 2.55385, 0, 0, 0, 0, 0, 0, 1.64868, -2.04527, 2.55034, 0, 0, 0, 0, 0, 0, 1.5132, -2.04527, 2.54627, 0, 0, 0, 0, 0, 0, 1.31689, -2.01702, 2.54403, 0, 0, 0, 0, 0, 0, 1.00264, -1.93893, 2.54426, 0, 0, 0, 0, 0, 0, 0.594174, -1.82095, 2.5444, 0, 0, 0, 0, 0, 0, 0.115194, -1.67306, 2.5419, 0, 0, 0, 0, 0, 0, -0.410581, -1.50523, 2.5342, 0, 0, 0, 0, 0, 0, -0.959438, -1.32743, 2.51875, 0, 0, 0, 0, 0, 0, -1.50766, -1.14963, 2.49299, 0, 0, 0, 0, 0, 0, -2.03154, -0.981796, 2.45436, 0, 0, 0, 0, 0, 0, -2.50735, -0.833906, 2.40031, 0, 0, 0, 0, 0, 0, -2.91139, -0.715927, 2.32827, 0, 0, 0, 0, 0, 0, -3.21993, -0.637828, 2.23571, 0, 0, 0, 0, 0, 0, -3.40927, -0.609579, 2.12005, 0, 0, 0, 0, 0, 0, -3.51394, -0.609579, 1.95704, 0, 0, 0, 0, 0, 0, -3.58587, -0.609579, 1.73238, 0, 0, 0, 0, 0, 0, -3.62752, -0.609579, 1.45845, 0, 0, 0, 0, 0, 0, -3.6413, -0.609579, 1.14763, 0, 0, 0, 0, 0, 0, -3.62965, -0.609579, 0.812297, 0, 0, 0, 0, 0, 0, -3.59501, -0.609579, 0.464841, 0, 0, 0, 0, 0, 0, -3.53979, -0.609579, 0.11764, 0, 0, 0, 0, 0, 0, -3.46643, -0.609579, -0.216926, 0, 0, 0, 0, 0, 0, -3.37737, -0.609579, -0.526473, 0, 0, 0, 0, 0, 0, -3.27503, -0.609579, -0.798623, 0, 0, 0, 0, 0, 0, -3.16184, -0.609579, -1.02099, 0, 0, 0, 0, 0, 0, -3.04024, -0.609579, -1.1812, 0, 0, 0, 0, 0, 0, -2.8748, -0.609579, -1.2865, 0, 0, 0, 0, 0, 0, -2.63679, -0.609579, -1.35581, 0, 0, 0, 0, 0, 0, -2.33864, -0.609579, -1.39425, 0, 0, 0, 0, 0, 0, -1.99277, -0.609579, -1.40693, 0, 0, 0, 0, 0, 0, -1.61162, -0.609579, -1.39896, 0, 0, 0, 0, 0, 0, -1.20762, -0.609579, -1.37547, 0, 0, 0, 0, 0, 0, -0.793202, -0.609579, -1.34155, 0, 0, 0, 0, 0, 0, -0.380802, -0.609579, -1.30233, 0, 0, 0, 0, 0, 0, 0.0171508, -0.609579, -1.26293, 0, 0, 0, 0, 0, 0, 0.388223, -0.609579, -1.22845, 0, 0, 0, 0, 0, 0, 0.719984, -0.609579, -1.20401, 0, 0, 0, 0, 0, 0, 1, -0.609579, -1.19473, 0, 0, 0, 0, 0, 0, 1.26338, -0.610253, -1.19246, 0, 0, 0, 0, 0, 0, 1.54918, -0.612115, -1.18643, 0, 0, 0, 0, 0, 0, 1.85086, -0.614929, -1.17778, 0, 0, 0, 0, 0, 0, 2.1619, -0.618456, -1.16765, 0, 0, 0, 0, 0, 0, 2.47577, -0.622458, -1.15721, 0, 0, 0, 0, 0, 0, 2.78595, -0.626698, -1.14758, 0, 0, 0, 0, 0, 0, 3.0859, -0.630938, -1.13993, 0, 0, 0, 0, 0, 0, 3.36911, -0.634941, -1.1354, 0, 0, 0, 0, 0, 0, 3.62903, -0.638468, -1.13514, 0, 0, 0, 0, 0, 0, 3.85915, -0.641281, -1.14029, 0, 0, 0, 0, 0, 0, 4.05294, -0.643144, -1.15201 ),
"tilts": PoolRealArray( 0, 0, 0, 0, 0, 0, 0, 0, 0, 0, 0, 0, 0, 0, 0, 0, 0, 0, 0, 0, 0, 0, 0, 0, 0, 0, 0, 0, 0, 0, 0, 0, 0, 0, 0, 0, 0, 0, 0, 0, 0, 0, 0, 0, 0, 0, 0, 0, 0, 0, 0, 0, 0, 0, 0, 0, 0, 0, 0, 0, 0, 0, 0, 0, 0, 0, 0, 0, 0, 0, 0, 0, 0, 0, 0, 0, 0, 0, 0, 0, 0, 0, 0, 0, 0, 0, 0, 0, 0, 0, 0, 0, 0, 0, 0, 0, 0, 0, 0, 0, 0, 0, 0, 0, 0, 0, 0, 0 )
}
