[gd_resource type="StyleBoxFlat" format=2]

[resource]
bg_color = Color( 0, 0, 0, 0.866667 )
corner_radius_top_left = 20
corner_radius_top_right = 20
corner_radius_bottom_right = 20
corner_radius_bottom_left = 20
