[gd_resource type="StyleBoxFlat" format=2]

[resource]
bg_color = Color( 0.0705882, 0.0705882, 0.0627451, 1 )
border_width_left = 10
border_width_top = 10
border_width_right = 10
border_width_bottom = 10
corner_radius_top_left = 150
corner_radius_top_right = 150
corner_radius_bottom_right = 150
corner_radius_bottom_left = 150
