[gd_resource type="StyleBoxFlat" format=2]

[resource]
bg_color = Color( 1, 0.682353, 0, 1 )
border_width_left = 4
border_width_top = 4
border_width_right = 4
border_width_bottom = 4
border_color = Color( 0, 0, 0, 1 )
corner_radius_top_left = 20
corner_radius_top_right = 20
corner_radius_bottom_right = 20
corner_radius_bottom_left = 20
shadow_color = Color( 0, 0, 0, 0.407843 )
shadow_size = 5
shadow_offset = Vector2( 5, 5 )
